<svg width="20" height="20" viewBox="0 0 20 20" fill="none" xmlns="http://www.w3.org/2000/svg">
<rect width="20" height="8" fill="#D8D8D8"/>
<rect y="12" width="20" height="8" fill="#D8D8D8"/>
</svg>
