<svg width="16" height="15" viewBox="0 0 16 15" fill="none" xmlns="http://www.w3.org/2000/svg">
<path fill-rule="evenodd" clip-rule="evenodd" d="M8 11.2L3.29772 14.4721L4.95662 8.98885L0.391548 5.52786L6.11909 5.41115L8 0L9.88091 5.41115L15.6085 5.52786L11.0434 8.98885L12.7023 14.4721L8 11.2Z" fill="#E5E5E5"/>
</svg>
