<?xml version="1.0" encoding="UTF-8"?>
<svg width="48px" height="43px" viewBox="0 0 48 43" version="1.1" xmlns="http://www.w3.org/2000/svg" xmlns:xlink="http://www.w3.org/1999/xlink">
    <title>Group 14</title>
    <g id="colors" stroke="none" stroke-width="1" fill="none" fill-rule="evenodd" opacity="0.501162574">
        <g id="color_origin03" transform="translate(-696.000000, -3607.000000)">
            <g id="Group" transform="translate(465.000000, 3604.000000)">
                <g id="Group-14" transform="translate(231.000000, 3.000000)">
                    <polygon id="Triangle" fill="#D8D8D8" transform="translate(11.149716, 31.830389) rotate(-330.000000) translate(-11.149716, -31.830389) " points="11.1274471 24.09125 18.8704306 39.5695275 3.42900206 39.5472582"></polygon>
                    <polygon id="Triangle" fill="#48ACF7" opacity="0.501325335" transform="translate(14.578288, 11.190389) rotate(-330.000000) translate(-14.578288, -11.190389) " points="14.5560186 3.45125 22.2990021 18.9295275 6.85757349 18.9072582"></polygon>
                    <polygon id="Triangle" fill="#48ACF7" opacity="0.501325335" transform="translate(21.440003, 21.517315) rotate(-330.000000) translate(-21.440003, -21.517315) " points="21.4028881 8.61875 34.3078606 34.4158791 8.57214629 34.3787637"></polygon>
                    <polygon id="Triangle" fill="#48ACF7" transform="translate(36.864002, 24.950389) rotate(-330.000000) translate(-36.864002, -24.950389) " points="36.8417328 17.21125 44.5847163 32.6895275 29.1432878 32.6672582"></polygon>
                </g>
            </g>
        </g>
    </g>
</svg>